-r ./base.txt

Werkzeug==0.14.1  # https://github.com/pallets/werkzeug
ipdb  # https://github.com/gotcha/ipdb
Sphinx==1.7.2  # https://github.com/sphinx-doc/sphinx
PyMySQL==0.7.11
pymongo==3.4.0

# Testing
# ------------------------------------------------------------------------------
pytest==3.5.0  # https://github.com/pytest-dev/pytest
pytest-sugar==0.9.1  # https://github.com/Frozenball/pytest-sugar

# Code quality
# ------------------------------------------------------------------------------
flake8==3.5.0  # https://github.com/PyCQA/flake8
coverage==4.5.1  # https://github.com/nedbat/coveragepy

# Django
# ------------------------------------------------------------------------------
factory-boy==2.10.0  # https://github.com/FactoryBoy/factory_boy
django-test-plus==1.0.22  # https://github.com/revsys/django-test-plus

django-debug-toolbar==1.9.1  # https://github.com/jazzband/django-debug-toolbar
django-extensions==2.0.6  # https://github.com/django-extensions/django-extensions
django-coverage-plugin==1.5.0  # https://github.com/nedbat/django_coverage_plugin
pytest-django==3.1.2  # https://github.com/pytest-dev/pytest-django
